<?xml version="1.0" encoding="UTF-8"?>
<svg width="32px" height="32px" viewBox="0 0 32 32" version="1.1" xmlns="http://www.w3.org/2000/svg" xmlns:xlink="http://www.w3.org/1999/xlink">
    <!-- Generator: Sketch 57.1 (83088) - https://sketch.com -->
    <title>info</title>
    <desc>Created with Sketch.</desc>
    <g id="Symbols" stroke="none" stroke-width="1" fill="none" fill-rule="evenodd">
        <g id="Info">
            <circle id="Oval" fill="#8EACCA" cx="16" cy="16" r="12"></circle>
            <path d="M16.9356046,12.2910517 L16.9356046,24.0593787 L15.0643954,24.0593787 L15.0643954,12.2910517 L16.9356046,12.2910517 Z M16,7.9406213 C16.6807944,7.9406213 17.2326873,8.49251421 17.2326873,9.17330862 C17.2326873,9.85410302 16.6807944,10.4059959 16,10.4059959 C15.3192056,10.4059959 14.7673127,9.85410302 14.7673127,9.17330862 C14.7673127,8.49251421 15.3192056,7.9406213 16,7.9406213 Z" id="Combined-Shape" fill="#FFFFFF"></path>
        </g>
    </g>
</svg>