<svg xmlns="http://www.w3.org/2000/svg" width="987" height="500" viewBox="0 0 987 500">
    <g fill="none" fill-rule="evenodd">
        <path fill="#9754EB" d="M367.322 132.678c-9.763-9.763-9.763-25.593 0-35.356 9.763-9.763 25.593-9.763 35.356 0 9.763 9.763 9.763 25.593 0 35.356-9.763 9.763-25.593 9.763-35.356 0z"/>
        <path fill="#804BC2" d="M407.51 104.107c4.507 9.312 2.896 20.842-4.832 28.57-6.46 6.46-15.576 8.646-23.833 6.557a595.148 595.148 0 0 1 19.098-24.177c3.461-4.154 6.65-7.804 9.566-10.95z"/>
        <path fill="#B375FF" d="M324.094 124.074l44.277-20.645a22.223 22.223 0 0 1 25.104 4.427 19.366 19.366 0 0 1 3.858 21.878l-22.537 48.334c-14.31 4.35-30.31 1.006-41.425-10.108-11.756-11.757-14.818-28.98-9.277-43.886z"/>
        <path fill="#9765D2" d="M398.137 115.373a19.359 19.359 0 0 1-.804 14.36l-22.537 48.335c-7.445 2.263-15.348 2.444-22.782.53 12.198-19.036 27.46-40.82 46.123-63.225z"/>
        <path fill="#9754EB" d="M208.973 157.364l95.867-37.621a58.841 58.841 0 0 1 63.103 13.167 55.786 55.786 0 0 1 12.483 59.827l-39.137 99.73c-33.06 8.354-72.354-2.592-101.333-31.57-29.624-29.625-40.403-70.029-30.983-103.533z"/>
        <path fill="#804BC2" d="M376.28 143.563a55.793 55.793 0 0 1 4.146 49.174l-39.137 99.73c-22.475 5.679-47.83 2.439-70.868-9.323 23.85-21.45 42.87-38.974 46.06-43.937 7.48-11.636 26.36-50.217 59.799-95.644z"/>
        <path fill="#B375FF" d="M320.445 179.055c47.376 47.376 46.472 109.327-2.71 185.851-7.308 10.136-13.24 17.482-17.796 22.039-51.745 51.744-135.64 51.744-187.384 0-51.744-51.745-51.744-135.64 0-187.384 4.557-4.556 11.903-10.488 22.039-17.795 76.524-49.183 138.475-50.087 185.85-2.71z"/>
        <path fill="#9765D2" d="M317.734 364.906c-7.307 10.136-13.239 17.482-17.795 22.039-41.28 41.28-103.02 49.628-152.576 25.045 1.137-27.49 5.626-38.76 9.637-44.49 14-20 149.734-114.734 158.734-128.734 3.981-6.193 11.19-20.017 22.105-38.443 28.731 44.165 22.03 99.026-20.105 164.583z"/>
        <path fill="#493D4D" d="M118.612 381.388c-48.816-48.815-48.816-127.96 0-176.776 48.815-48.816 127.96-48.816 176.776 0 48.816 48.815 48.816 127.96 0 176.776-48.815 48.816-127.96 48.816-176.776 0z"/>
        <path fill="#27261E" d="M295.388 381.388c-39.958 39.958-100.237 47.209-147.57 21.752-24.472-47.092-16.948-106.494 22.574-146.015 39.957-39.958 100.237-47.209 147.57-21.752 24.472 47.092 16.948 106.494-22.574 146.015z"/>
        <path fill="#F5EEFF" fill-rule="nonzero" d="M206 401c59.094 0 107-47.906 107-107s-47.906-107-107-107S99 234.906 99 294s47.906 107 107 107zm0-18c-49.153 0-89-39.847-89-89s39.847-89 89-89 89 39.847 89 89-39.847 89-89 89z"/>
        <g fill="#27261E" fill-rule="nonzero">
            <path d="M454 228v-19.385h15.041v-94.384H454V96h61.785v18.23h-15.041v94.385h43.041v-36.923H566V228zM672 211.09v17.363h-35.427l-2.07-8.334C625.606 227.373 615.638 231 604.595 231c-9.202 0-16.601-2.508-22.2-7.524C576.8 218.46 574 211.94 574 203.914c0-9.877 3.412-17.131 10.237-21.761 6.825-4.63 15.528-6.945 26.11-6.945 7.669 0 15.03 1.003 22.085 3.01v-6.483c0-6.173-1.61-10.842-4.831-14.006-3.22-3.164-7.898-4.746-14.033-4.746-9.202 0-19.4 2.701-30.596 8.103l-6.672-16.437c6.442-3.55 13.381-6.212 20.82-7.987 7.438-1.775 14.684-2.662 21.74-2.662 12.882 0 22.927 3.202 30.135 9.607 7.208 6.405 10.813 15.164 10.813 26.276v41.208H672zm-72.925-9.028c0 4.013 1.265 7.215 3.796 9.607 2.53 2.393 5.943 3.589 10.237 3.589 6.901 0 13.343-2.392 19.324-7.177v-17.363c-5.061-1.697-10.582-2.546-16.563-2.546-4.755 0-8.742 1.119-11.963 3.357-3.22 2.238-4.83 5.749-4.83 10.533zM800 210.72V228h-53.552v-17.28h11.823v-40.548c0-5.223-1.236-9.293-3.71-12.211-2.472-2.919-5.95-4.378-10.431-4.378-6.182 0-12.828 2.074-19.937 6.22v50.918h12.518V228H682v-17.28h14.141v-57.137H682v-17.28h40.57l.232 8.525c11.282-7.219 22.1-10.828 32.455-10.828 9.428 0 16.962 2.88 22.604 8.64 5.64 5.76 8.461 13.4 8.461 22.924v45.157H800zM913 211.132v17.327h-38.716l-.23-6.7c-8.604 6.16-18.283 9.241-29.038 9.241-8.45 0-15.978-2.002-22.584-6.007-6.606-4.004-11.83-9.664-15.67-16.98-3.842-7.316-5.762-15.903-5.762-25.76 0-9.703 1.882-18.174 5.646-25.413 3.764-7.24 8.91-12.822 15.44-16.75 6.53-3.927 13.866-5.891 22.009-5.891 11.061 0 20.587 3.234 28.576 9.703v-32.806h-14.98V94h42.865v117.132H913zm-82.963-27.955c0 8.163 2.266 14.67 6.798 19.522 4.533 4.852 10.41 7.277 17.63 7.277 6.453 0 12.521-1.848 18.206-5.544v-42.51c-5.838-4.466-12.214-6.7-19.128-6.7-7.067 0-12.751 2.426-17.053 7.278-4.302 4.852-6.453 11.744-6.453 20.677zM454 400.738v-19.445h15.018V287.77H454v-19.446h61.688v19.446H500.67v35.881h54.756V287.77H540.41v-19.446h61.687v19.446H587.08v93.523h15.017v19.445H540.41v-19.445h15.017v-38.66H500.67v38.66h15.018v19.445zM656.454 403.284c-10.012 0-18.83-2.006-26.454-6.018-7.625-4.013-13.516-9.723-17.675-17.13-4.159-7.409-6.238-15.897-6.238-25.465s2.08-18.018 6.238-25.348c4.159-7.331 10.05-13.003 17.675-17.015 7.624-4.013 16.442-6.019 26.454-6.019 10.011 0 18.868 2.006 26.57 6.019 7.7 4.012 13.669 9.645 17.905 16.899 4.235 7.253 6.353 15.664 6.353 25.233 0 9.722-2.118 18.287-6.353 25.695-4.236 7.408-10.205 13.118-17.906 17.13-7.701 4.013-16.558 6.02-26.57 6.02zm0-21.297c7.393.154 13.284-2.276 17.674-7.292 4.39-5.016 6.585-11.767 6.585-20.255 0-8.18-2.195-14.7-6.585-19.562-4.39-4.86-10.281-7.292-17.674-7.292-7.24 0-13.016 2.431-17.328 7.292-4.313 4.862-6.47 11.46-6.47 19.793 0 8.334 2.157 15.008 6.47 20.024 4.312 5.016 10.088 7.446 17.328 7.292zM722.32 362.542l-4.851-58.336V263h25.645v41.206l-5.083 58.336zM730.638 402.59c-4.467 0-8.125-1.35-10.974-4.051-2.85-2.7-4.274-6.057-4.274-10.07 0-4.167 1.424-7.6 4.274-10.301 2.85-2.701 6.507-4.052 10.974-4.052 4.621 0 8.356 1.35 11.206 4.052 2.85 2.7 4.274 6.134 4.274 10.301 0 4.013-1.425 7.37-4.274 10.07-2.85 2.7-6.585 4.051-11.206 4.051z"/>
        </g>
    </g>
</svg>
