<svg xmlns="http://www.w3.org/2000/svg" width="10" height="10" viewBox="0 0 10 10">
    <g fill="none" fill-rule="evenodd" stroke="#B375FF">
        <circle cx="4.5" cy="4.5" r="2.5"/>
        <path d="M6 6l2.5 2.5"/>
    </g>
</svg>
